<?xml version="1.0" encoding="utf-8"?>
<!-- Generator: Adobe Illustrator 16.0.0, SVG Export Plug-In . SVG Version: 6.00 Build 0)  -->
<!DOCTYPE svg PUBLIC "-//W3C//DTD SVG 1.1//EN" "http://www.w3.org/Graphics/SVG/1.1/DTD/svg11.dtd">
<svg version="1.1" id="Layer_1" xmlns="http://www.w3.org/2000/svg" xmlns:xlink="http://www.w3.org/1999/xlink" x="0px" y="0px"
	 width="100px" height="100px" viewBox="0 0 100 100" enable-background="new 0 0 100 100" xml:space="preserve">
<path fill="#A019FF" d="M76.562,2C88.383,2,98,11.617,98,23.438v53.125C98,88.383,88.383,98,76.562,98H23.438
	C11.617,98,2,88.383,2,76.562V23.438C2,11.617,11.617,2,23.438,2H76.562 M76.562,0H23.438C10.493,0,0,10.493,0,23.438v53.125
	C0,89.506,10.493,100,23.438,100h53.125C89.507,100,100,89.506,100,76.562V23.438C100,10.493,89.507,0,76.562,0L76.562,0z"/>
<path fill="#A019FF" d="M50,10c22.056,0,40,17.944,40,40c0,22.056-17.944,40-40,40c-22.056,0-40-17.944-40-40
	C10,27.944,27.944,10,50,10 M50,8C26.803,8,8,26.804,8,50s18.803,42,42,42s42-18.804,42-42S73.197,8,50,8L50,8z"/>
<path fill="#A019FF" d="M50,33c9.374,0,17,7.626,17,17s-7.626,17-17,17s-17-7.626-17-17S40.626,33,50,33 M50,32
	c-9.938,0-18,8.06-18,18s8.062,18,18,18s18-8.06,18-18S59.938,32,50,32L50,32z"/>
<rect x="-9.397" y="49.5" transform="matrix(0.7071 0.7071 -0.7071 0.7071 50 -20.7107)" fill="#A019FF" width="118.794" height="1"/>
<rect x="49.5" y="-9.397" transform="matrix(0.7071 0.7071 -0.7071 0.7071 50 -20.7107)" fill="#A019FF" width="1" height="118.794"/>
<rect x="8" y="8" fill="#A019FF" width="1" height="84"/>
<rect x="91" y="8" fill="#A019FF" width="1" height="84"/>
<rect x="49" fill="#A019FF" width="2" height="100"/>
<rect x="67" fill="#A019FF" width="1" height="100"/>
<rect x="32" fill="#A019FF" width="1" height="100"/>
<rect x="8" y="8" fill="#A019FF" width="84" height="1"/>
<rect x="8" y="91" fill="#A019FF" width="84" height="1"/>
<rect y="67" fill="#A019FF" width="100" height="1"/>
<rect y="32" fill="#A019FF" width="100" height="1"/>
<rect y="49" fill="#A019FF" width="100" height="2"/>
</svg>
