<?xml version="1.0" encoding="utf-8"?>
<!-- Generator: Adobe Illustrator 16.0.0, SVG Export Plug-In . SVG Version: 6.00 Build 0)  -->
<!DOCTYPE svg PUBLIC "-//W3C//DTD SVG 1.1//EN" "http://www.w3.org/Graphics/SVG/1.1/DTD/svg11.dtd">
<svg version="1.1" id="Layer_1" xmlns="http://www.w3.org/2000/svg" xmlns:xlink="http://www.w3.org/1999/xlink" x="0px" y="0px"
	 width="64px" height="95px" viewBox="0 0 64 95" enable-background="new 0 0 64 95" xml:space="preserve">
<path fill="#00CC9C" d="M32,79C14.355,79,0,64.645,0,47c0-17.645,14.355-32,32-32s32,14.355,32,32C64,64.645,49.645,79,32,79z
	 M32,17C15.458,17,2,30.458,2,47s13.458,30,30,30s30-13.458,30-30S48.542,17,32,17z"/>
<path fill="#00CC9C" d="M32,65c-6.065,0-11-4.935-11-11V40c0-6.065,4.935-11,11-11s11,4.935,11,11v14C43,60.065,38.065,65,32,65z
	 M32,31c-4.963,0-9,4.038-9,9v14c0,4.963,4.037,9,9,9s9-4.037,9-9V40C41,35.038,36.963,31,32,31z"/>
<path fill="#00CC9C" d="M34,41c0,1.104-0.896,2-2,2l0,0c-1.104,0-2-0.896-2-2v-5c0-1.104,0.896-2,2-2l0,0c1.104,0,2,0.896,2,2V41z"
	/>
<path fill="#00CC9C" d="M32.001,95c-0.384,0-0.749-0.221-0.915-0.594c-0.224-0.505,0.003-1.096,0.508-1.32l9-4
	c0.506-0.224,1.097,0.004,1.32,0.508c0.224,0.505-0.003,1.096-0.508,1.32l-9,4C32.274,94.973,32.137,95,32.001,95z"/>
<path fill="#00CC9C" d="M31.999,95c-0.136,0-0.273-0.027-0.405-0.086l-9-4c-0.505-0.225-0.731-0.815-0.508-1.32
	c0.226-0.504,0.817-0.731,1.32-0.508l9,4c0.505,0.225,0.731,0.815,0.508,1.32C32.748,94.779,32.383,95,31.999,95z"/>
<path fill="#00CC9C" d="M40.999,6c-0.136,0-0.273-0.028-0.405-0.087l-9-4c-0.505-0.224-0.731-0.815-0.508-1.32
	c0.226-0.504,0.817-0.732,1.32-0.507l9,4c0.505,0.224,0.731,0.815,0.508,1.32C41.748,5.779,41.383,6,40.999,6z"/>
<path fill="#00CC9C" d="M23.001,6c-0.384,0-0.749-0.222-0.915-0.594c-0.224-0.505,0.003-1.096,0.508-1.32l9-4
	c0.506-0.225,1.096,0.003,1.32,0.507c0.224,0.505-0.003,1.096-0.508,1.32l-9,4C23.274,5.973,23.137,6,23.001,6z"/>
</svg>
